Suite/Test/Step Name,Browser,Description,Tag,Start time,End time,Duration,Status
TestSuiteExcel,Chrome 74.0.3729.131,,,2019-05-13 15:11:09,2019-05-13 15:12:10,1m - 1.067s,PASSED
,,,,,,,
Test Cases/test_katalon2,Chrome 74.0.3729.131,,,2019-05-13 15:11:09,2019-05-13 15:12:09,59.465s,PASSED
Start listener action : sampleBeforeTestCase,Chrome 74.0.3729.131,,,2019-05-13 15:11:09,2019-05-13 15:11:10,0.002s,PASSED
"openBrowser("""")",Chrome 74.0.3729.131,,,2019-05-13 15:11:10,2019-05-13 15:11:16,5.877s,PASSED
"navigateToUrl(""http://katalon-demo-cura.herokuapp.com"")",Chrome 74.0.3729.131,,,2019-05-13 15:11:16,2019-05-13 15:11:28,11.862s,PASSED
"get.Screencapture.getEntirePage("""")",Chrome 74.0.3729.131,,,2019-05-13 15:11:28,2019-05-13 15:11:34,6.003s,PASSED
"click(findTestObject(""test1/Page_CURA Healthcare Service/a_Make Appointment""))",Chrome 74.0.3729.131,,,2019-05-13 15:11:34,2019-05-13 15:11:35,1.435s,PASSED
"get.Screencapture.getEntirePage("""")",Chrome 74.0.3729.131,,,2019-05-13 15:11:35,2019-05-13 15:11:41,5.422s,PASSED
"setText(findTestObject(""test1/Page_CURA Healthcare Service/input_Username_username""), ""John Doe"")",Chrome 74.0.3729.131,,,2019-05-13 15:11:41,2019-05-13 15:11:41,0.362s,PASSED
"get.Screencapture.getEntirePage("""")",Chrome 74.0.3729.131,,,2019-05-13 15:11:41,2019-05-13 15:11:47,5.375s,PASSED
"setEncryptedText(findTestObject(""test1/Page_CURA Healthcare Service/input_Password_password""), ""g3/DOGG74jC3Flrr3yH+3D/yKbOqqUNM"")",Chrome 74.0.3729.131,,,2019-05-13 15:11:47,2019-05-13 15:11:47,0.538s,PASSED
"get.Screencapture.getEntirePage("""")",Chrome 74.0.3729.131,,,2019-05-13 15:11:47,2019-05-13 15:11:53,5.527s,PASSED
"click(findTestObject(""test1/Page_CURA Healthcare Service/button_Login""))",Chrome 74.0.3729.131,,,2019-05-13 15:11:53,2019-05-13 15:11:55,2.261s,PASSED
"get.Screencapture.getEntirePage("""")",Chrome 74.0.3729.131,,,2019-05-13 15:11:55,2019-05-13 15:12:00,5.363s,PASSED
"click(findTestObject(""test1/Page_CURA Healthcare Service/i_CURA Healthcare_fa fa-bars""))",Chrome 74.0.3729.131,,,2019-05-13 15:12:00,2019-05-13 15:12:00,0.198s,PASSED
"get.Screencapture.getEntirePage("""")",Chrome 74.0.3729.131,,,2019-05-13 15:12:00,2019-05-13 15:12:07,6.066s,PASSED
"click(findTestObject(""test1/Page_CURA Healthcare Service/a_Logout""))",Chrome 74.0.3729.131,,,2019-05-13 15:12:07,2019-05-13 15:12:09,2.375s,PASSED
Start listener action : sampleAfterTestCase,Chrome 74.0.3729.131,,,2019-05-13 15:12:09,2019-05-13 15:12:09,0.001s,PASSED
